{
    "1": {
        "id": 1,
        "name": "black1",
        "simple": false,
        "hex": "#bfbfbf",
        "simpleColorId": 2
    },
    "2": {
        "id": 2,
        "name": "black2",
        "simple": true,
        "hex": "#333333",
        "simpleColorId": 2
    },
    "3": {
        "id": 3,
        "name": "black3",
        "simple": false,
        "hex": "#111111",
        "simpleColorId": 2
    },
    "4": {
        "id": 4,
        "name": "blue1",
        "simple": false,
        "hex": "#41a7f8",
        "simpleColorId": 5
    },
    "5": {
        "id": 5,
        "name": "blue2",
        "simple": true,
        "hex": "#2b37f6",
        "simpleColorId": 5
    },
    "6": {
        "id": 6,
        "name": "blue3",
        "simple": false,
        "hex": "#020f69",
        "simpleColorId": 5
    },
    "7": {
        "id": 7,
        "name": "green1",
        "simple": false,
        "hex": "#7aefa6",
        "simpleColorId": 8
    },
    "8": {
        "id": 8,
        "name": "green2",
        "simple": true,
        "hex": "#67f02c",
        "simpleColorId": 8
    },
    "9": {
        "id": 9,
        "name": "green3",
        "simple": false,
        "hex": "#204a1c",
        "simpleColorId": 8
    },
    "10": {
        "id": 10,
        "name": "yellow1",
        "simple": false,
        "hex": "#ffffcc",
        "simpleColorId": 11
    },
    "11": {
        "id": 11,
        "name": "yellow2",
        "simple": true,
        "hex": "#ffff33",
        "simpleColorId": 11
    },
    "12": {
        "id": 12,
        "name": "yellow3",
        "simple": false,
        "hex": "#deb22e",
        "simpleColorId": 11
    },
    "13": {
        "id": 13,
        "name": "orange1",
        "simple": false,
        "hex": "#fde9d9",
        "simpleColorId": 14
    },
    "14": {
        "id": 14,
        "name": "orange2",
        "simple": true,
        "hex": "#fd7322",
        "simpleColorId": 14
    },
    "15": {
        "id": 15,
        "name": "orange3",
        "simple": false,
        "hex": "#c04d01",
        "simpleColorId": 14
    },
    "16": {
        "id": 16,
        "name": "brown1",
        "simple": false,
        "hex": "#8e563a",
        "simpleColorId": 17
    },
    "17": {
        "id": 17,
        "name": "brown2",
        "simple": true,
        "hex": "#510b0c",
        "simpleColorId": 17
    },
    "18": {
        "id": 18,
        "name": "brown3",
        "simple": false,
        "hex": "#320a0b",
        "simpleColorId": 17
    },
    "19": {
        "id": 19,
        "name": "red1",
        "simple": false,
        "hex": "#ff6666",
        "simpleColorId": 20
    },
    "20": {
        "id": 20,
        "name": "red2",
        "simple": true,
        "hex": "#ff0000",
        "simpleColorId": 20
    },
    "21": {
        "id": 21,
        "name": "red3",
        "simple": false,
        "hex": "#8c113e",
        "simpleColorId": 20
    },
    "22": {
        "id": 22,
        "name": "pink1",
        "simple": false,
        "hex": "#d59aca",
        "simpleColorId": 23
    },
    "23": {
        "id": 23,
        "name": "pink2",
        "simple": true,
        "hex": "#ff6fcf",
        "simpleColorId": 23
    },
    "24": {
        "id": 24,
        "name": "pink3",
        "simple": false,
        "hex": "#830c93",
        "simpleColorId": 23
    },
    "25": {
        "id": 25,
        "name": "purple1",
        "simple": false,
        "hex": "#8064a2",
        "simpleColorId": 26
    },
    "26": {
        "id": 26,
        "name": "purple2",
        "simple": true,
        "hex": "#50268d",
        "simpleColorId": 26
    },
    "27": {
        "id": 27,
        "name": "purple3",
        "simple": false,
        "hex": "#270d45",
        "simpleColorId": 26
    }
}